ReadMe
------------------------------------
Sample text readme file for test purpose.
1.	This would be a test project checkin everytime I learn something new with Java.
2.	Nothing further to that :P
------------end----------------------